00:00:00.827376 VirtualBox GUI VM Selector Window 6.1.36 r152435 linux.amd64 (Jul 21 2022 10:08:57) release log
00:00:00.827380 Log opened 2022-09-03T14:41:53.833906000Z
00:00:00.827382 Build Type: release
00:00:00.827387 OS Product: Linux
00:00:00.827390 OS Release: 5.18.16-zen1-1-zen
00:00:00.827393 OS Version: #1 ZEN SMP PREEMPT_DYNAMIC Wed, 03 Aug 2022 11:25:10 +0000
00:00:00.827428 DMI Product Name: HP Laptop 15-bs0xx
00:00:00.827446 DMI Product Version: Type1ProductConfigId
00:00:00.827454 Firmware type: UEFI
00:00:00.828370 Secure Boot: Disabled
00:00:00.828447 Host RAM: 7863MB (7.6GB) total, 6250MB (6.1GB) available
00:00:00.828452 Executable: /usr/lib/virtualbox/VirtualBox
00:00:00.828453 Process ID: 32036
00:00:00.828454 Package type: LINUX_64BITS_GENERIC (OSE)
00:00:00.828540 Qt version: 5.15.5
00:00:01.030614 GUI: UIMediumEnumerator: Medium-enumeration started...
00:00:02.843023 GUI: UIDesktopWidgetWatchdog::sltHandleHostScreenAvailableGeometryCalculated: Screen 0 work area is actually resized to: 1001x48 x 909x501
00:00:02.861727 GUI: UIMediumEnumerator: Medium-enumeration finished!
00:02:53.369555 GUI: UIMediumEnumerator: Medium with key={{ba9a253f-39a5-4cac-bf8a-03a2a810bfef}} created
00:02:53.547665 GUI: UIMediumEnumerator: Medium-enumeration finished!
00:03:01.927105 GUI: UIMediumEnumerator: Medium-enumeration finished!
00:05:05.235983 GUI: UIMediumEnumerator: Medium-enumeration finished!
00:09:46.321078 GUI: UIMediumEnumerator: Medium-enumeration finished!
00:09:55.102130 GUI: UIMediumEnumerator: Medium-enumeration finished!
00:33:21.264656 GUI: UIMediumEnumerator: Medium with key={{4111c267-90ad-4bdb-8904-2eb4ade30dcb}} created
00:33:21.284317 GUI: UIMediumEnumerator: Medium-enumeration finished!
00:33:23.722498 GUI: UIMediumEnumerator: Medium-enumeration finished!
01:39:45.929222 GUI: UIMediumEnumerator: Medium-enumeration finished!
01:39:45.929476 Log rotated - Log started 2022-09-03T14:41:53.833906000Z
