00:00:00.796433 VirtualBox GUI VM Selector Window 6.1.36 r152435 linux.amd64 (Jul 21 2022 10:08:57) release log
00:00:00.796436 Log opened 2022-09-04T04:46:30.069276000Z
00:00:00.796436 Build Type: release
00:00:00.796440 OS Product: Linux
00:00:00.796442 OS Release: 5.18.16-zen1-1-zen
00:00:00.796444 OS Version: #1 ZEN SMP PREEMPT_DYNAMIC Wed, 03 Aug 2022 11:25:10 +0000
00:00:00.796469 DMI Product Name: HP Laptop 15-bs0xx
00:00:00.796482 DMI Product Version: Type1ProductConfigId
00:00:00.796488 Firmware type: UEFI
00:00:00.797270 Secure Boot: Disabled
00:00:00.797331 Host RAM: 7863MB (7.6GB) total, 7305MB (7.1GB) available
00:00:00.797335 Executable: /usr/lib/virtualbox/VirtualBox
00:00:00.797335 Process ID: 3878
00:00:00.797336 Package type: LINUX_64BITS_GENERIC (OSE)
00:00:00.797378 Qt version: 5.15.5
00:00:00.979060 GUI: UIMediumEnumerator: Medium-enumeration started...
00:00:02.100049 GUI: UIDesktopWidgetWatchdog::sltHandleHostScreenAvailableGeometryCalculated: Screen 0 work area is actually resized to: 1001x48 x 909x974
00:00:02.151014 GUI: UIMediumEnumerator: Medium-enumeration finished!
00:32:37.995983 GUI: UIMediumEnumerator: Medium-enumeration finished!
00:51:17.105695 GUI: UIMediumEnumerator: Medium-enumeration finished!
00:51:30.282702 GUI: UIMediumEnumerator: Medium-enumeration finished!
00:51:55.807262 GUI: UIMediumEnumerator: Medium-enumeration finished!
01:09:31.497055 GUI: UIMediumEnumerator: Medium-enumeration finished!
01:09:31.497100 Log rotated - Log started 2022-09-04T04:46:30.069276000Z
