00:00:00.839181 VirtualBox GUI VM Selector Window 6.1.36 r152435 linux.amd64 (Jul 21 2022 10:08:57) release log
00:00:00.839184 Log opened 2022-09-04T09:52:20.643927000Z
00:00:00.839185 Build Type: release
00:00:00.839188 OS Product: Linux
00:00:00.839190 OS Release: 5.18.16-zen1-1-zen
00:00:00.839193 OS Version: #1 ZEN SMP PREEMPT_DYNAMIC Wed, 03 Aug 2022 11:25:10 +0000
00:00:00.839217 DMI Product Name: HP Laptop 15-bs0xx
00:00:00.839230 DMI Product Version: Type1ProductConfigId
00:00:00.839237 Firmware type: UEFI
00:00:00.840279 Secure Boot: Disabled
00:00:00.840344 Host RAM: 7863MB (7.6GB) total, 6752MB (6.5GB) available
00:00:00.840347 Executable: /usr/lib/virtualbox/VirtualBox
00:00:00.840348 Process ID: 17212
00:00:00.840348 Package type: LINUX_64BITS_GENERIC (OSE)
00:00:00.840392 Qt version: 5.15.5
00:00:01.023172 GUI: UIMediumEnumerator: Medium-enumeration started...
00:00:02.150196 GUI: UIDesktopWidgetWatchdog::sltHandleHostScreenAvailableGeometryCalculated: Screen 0 work area is actually resized to: 1001x48 x 909x974
00:00:02.177544 GUI: UIMediumEnumerator: Medium-enumeration finished!
00:01:24.751457 GUI: UIMediumEnumerator: Medium-enumeration finished!
00:02:49.012435 GUI: UIMediumEnumerator: Medium-enumeration finished!
00:03:09.467888 GUI: UIMediumEnumerator: Medium-enumeration finished!
00:03:22.735998 GUI: UIMediumEnumerator: Medium-enumeration finished!
00:10:03.103907 GUI: UIMediumEnumerator: Medium-enumeration finished!
00:28:36.225853 GUI: UIMediumEnumerator: Medium-enumeration finished!
00:28:36.261698 GUI: UIMediumEnumerator: Medium-enumeration finished!
00:28:36.305820 GUI: UIMediumEnumerator: Medium-enumeration finished!
