00:00:00.814963 VirtualBox GUI VM Selector Window 6.1.36 r152435 linux.amd64 (Jul 21 2022 10:08:57) release log
00:00:00.814966 Log opened 2022-08-30T12:12:46.750681000Z
00:00:00.814966 Build Type: release
00:00:00.814970 OS Product: Linux
00:00:00.814972 OS Release: 5.18.16-zen1-1-zen
00:00:00.814974 OS Version: #1 ZEN SMP PREEMPT_DYNAMIC Wed, 03 Aug 2022 11:25:10 +0000
00:00:00.814999 DMI Product Name: HP Laptop 15-bs0xx
00:00:00.815011 DMI Product Version: Type1ProductConfigId
00:00:00.815017 Firmware type: UEFI
00:00:00.815789 Secure Boot: Disabled
00:00:00.815851 Host RAM: 7863MB (7.6GB) total, 6735MB (6.5GB) available
00:00:00.815855 Executable: /usr/lib/virtualbox/VirtualBox
00:00:00.815855 Process ID: 10121
00:00:00.815856 Package type: LINUX_64BITS_GENERIC (OSE)
00:00:00.815899 Qt version: 5.15.5
00:00:00.984208 GUI: UIMediumEnumerator: Medium-enumeration started...
00:00:02.153121 GUI: UIDesktopWidgetWatchdog::sltHandleHostScreenAvailableGeometryCalculated: Screen 0 work area is actually resized to: 6x48 x 985x1022
00:00:02.176843 GUI: UIMediumEnumerator: Medium-enumeration finished!
00:00:17.941907 GUI: UIMediumEnumerator: Medium-enumeration finished!
