01:39:45.929825 Log continuation - Log started 2022-09-03T14:41:53.833906000Z
01:40:20.981662 GUI: UIMediumEnumerator: Medium with key={{c6ea4639-c4c1-46d9-a27a-7da1eee3332e}} created
01:40:21.054920 GUI: UIMediumEnumerator: Medium-enumeration finished!
01:40:23.704297 GUI: UIMediumEnumerator: Medium-enumeration finished!
01:41:16.339359 GUI: UIMediumEnumerator: Medium-enumeration finished!
01:41:48.453749 GUI: UIMediumEnumerator: Medium-enumeration finished!
01:52:35.089880 GUI: UIMediumEnumerator: Medium-enumeration finished!
01:55:54.038346 GUI: UIMediumEnumerator: Medium-enumeration finished!
01:57:03.828723 GUI: UIMediumEnumerator: Medium-enumeration finished!
