00:00:01.085578 VirtualBox GUI VM Selector Window 6.1.38 r153438 linux.amd64 (Sep  1 2022 19:47:47) release log
00:00:01.085581 Log opened 2022-09-07T13:29:20.050562000Z
00:00:01.085582 Build Type: release
00:00:01.085586 OS Product: Linux
00:00:01.085589 OS Release: 5.19.7-zen2-1-zen
00:00:01.085592 OS Version: #1 ZEN SMP PREEMPT_DYNAMIC Mon, 05 Sep 2022 18:33:28 +0000
00:00:01.085623 DMI Product Name: HP Laptop 15-bs0xx
00:00:01.085640 DMI Product Version: Type1ProductConfigId
00:00:01.085647 Firmware type: UEFI
00:00:01.086462 Secure Boot: Disabled
00:00:01.086548 Host RAM: 7863MB (7.6GB) total, 6269MB (6.1GB) available
00:00:01.086553 Executable: /usr/lib/virtualbox/VirtualBox
00:00:01.086553 Process ID: 46504
00:00:01.086554 Package type: LINUX_64BITS_GENERIC (OSE)
00:00:01.086605 Qt version: 5.15.5
00:00:01.252215 GUI: UIMediumEnumerator: Medium-enumeration started...
00:00:02.387639 GUI: UIDesktopWidgetWatchdog::sltHandleHostScreenAvailableGeometryCalculated: Screen 0 work area is actually resized to: 1007x62 x 879x946
00:00:02.439159 GUI: UIMediumEnumerator: Medium-enumeration finished!
00:03:25.284585 GUI: UIMediumEnumerator: Medium-enumeration finished!
00:03:33.734482 GUI: UIMediumEnumerator: Medium-enumeration finished!
00:03:59.048701 GUI: UIMediumEnumerator: Medium-enumeration finished!
00:13:09.419992 GUI: UIMediumEnumerator: Medium-enumeration finished!
00:34:55.964712 GUI: UIMediumEnumerator: Medium-enumeration finished!
00:35:27.792902 GUI: UIMediumEnumerator: Medium-enumeration finished!
00:36:09.137731 GUI: UIMediumEnumerator: Medium-enumeration finished!
00:36:09.157358 GUI: UIMediumEnumerator: Medium-enumeration finished!
00:36:12.407928 GUI: UIMediumEnumerator: Medium-enumeration finished!
00:36:31.139309 GUI: UIMediumEnumerator: Medium-enumeration finished!
00:36:45.499097 GUI: UIMediumEnumerator: Medium-enumeration finished!
00:36:45.619045 GUI: UIMediumEnumerator: Medium-enumeration finished!
00:47:01.736725 GUI: UIMediumEnumerator: Medium-enumeration finished!
00:47:21.849687 GUI: UIMediumEnumerator: Medium-enumeration finished!
00:47:51.460032 GUI: UIMediumEnumerator: Medium-enumeration finished!
00:48:12.387244 GUI: UIMediumEnumerator: Medium-enumeration finished!
01:07:50.602484 GUI: UIMediumEnumerator: Medium-enumeration finished!
01:07:50.602738 Log rotated - Log started 2022-09-07T13:29:20.050562000Z
