00:00:00.779717 VirtualBox GUI VM Selector Window 6.1.38 r153438 linux.amd64 (Sep  1 2022 19:47:47) release log
00:00:00.779720 Log opened 2022-09-07T09:08:42.959051000Z
00:00:00.779721 Build Type: release
00:00:00.779724 OS Product: Linux
00:00:00.779726 OS Release: 5.19.7-zen2-1-zen
00:00:00.779729 OS Version: #1 ZEN SMP PREEMPT_DYNAMIC Mon, 05 Sep 2022 18:33:28 +0000
00:00:00.779756 DMI Product Name: HP Laptop 15-bs0xx
00:00:00.779770 DMI Product Version: Type1ProductConfigId
00:00:00.779776 Firmware type: UEFI
00:00:00.780813 Secure Boot: Disabled
00:00:00.780898 Host RAM: 7863MB (7.6GB) total, 7139MB (6.9GB) available
00:00:00.780902 Executable: /usr/lib/virtualbox/VirtualBox
00:00:00.780903 Process ID: 36229
00:00:00.780904 Package type: LINUX_64BITS_GENERIC (OSE)
00:00:00.780949 Qt version: 5.15.5
00:00:00.951094 GUI: UIMediumEnumerator: Medium-enumeration started...
00:00:02.032632 GUI: UIMediumEnumerator: Medium-enumeration finished!
00:00:02.060652 GUI: UIDesktopWidgetWatchdog::sltHandleHostScreenAvailableGeometryCalculated: Screen 0 work area is actually resized to: 32x58 x 921x990
00:00:13.247040 GUI: UIMediumEnumerator: Medium-enumeration finished!
00:00:43.300686 GUI: UIMediumEnumerator: Medium-enumeration finished!
00:00:43.387620 GUI: UIMediumEnumerator: Medium-enumeration finished!
00:00:45.021141 GUI: UIMediumEnumerator: Medium-enumeration finished!
00:03:32.240356 GUI: UIMediumEnumerator: Medium-enumeration finished!
00:04:49.741691 GUI: UIMediumEnumerator: Medium-enumeration finished!
00:04:49.799428 GUI: UIMediumEnumerator: Medium-enumeration finished!
